<?xml version="1.0" encoding="utf-8"?>
<!-- Generator: Adobe Illustrator 16.0.4, SVG Export Plug-In . SVG Version: 6.00 Build 0)  -->
<!DOCTYPE svg PUBLIC "-//W3C//DTD SVG 1.1//EN" "http://www.w3.org/Graphics/SVG/1.1/DTD/svg11.dtd">
<svg version="1.1" id="Ebene_1" xmlns="http://www.w3.org/2000/svg" xmlns:xlink="http://www.w3.org/1999/xlink" x="0px" y="0px"
	 width="590.43px" height="146.382px" viewBox="2.409 342.875 590.43 146.382"
	 enable-background="new 2.409 342.875 590.43 146.382" xml:space="preserve">
<path fill="#FFFFFF" d="M210.056,371.42v54.894h-12.932V371.42h-13.662v-11.467h40.255v11.467H210.056z M256.165,397.036v29.276
	h-13.174v-29.276l-17.565-37.083h14.149l10.491,25.617l10.49-25.617h13.418L256.165,397.036z M300.079,403.379h-5.367v22.934h-12.93
	v-66.359c0,0,9.515-0.976,17.565-0.976c17.077,0,21.957,8.051,21.957,22.201C321.061,397.524,313.741,403.379,300.079,403.379z
	 M300.812,370.2c-1.952,0-4.147,0.244-6.101,0.488v21.225h5.855c4.393,0,7.319-4.147,7.319-10.491
	C307.887,374.347,306.179,370.2,300.812,370.2L300.812,370.2z M351.313,427.288c-18.785,0-22.201-11.71-22.201-34.887
	c0-22.201,3.903-33.423,22.201-33.423s22.201,10.979,22.201,33.423C373.514,415.578,370.098,427.288,351.313,427.288z
	 M351.313,369.224c-6.831,0-9.026,4.147-9.026,23.665s2.195,24.153,9.026,24.153s9.026-5.123,9.026-24.153
	C360.34,373.859,358.144,369.224,351.313,369.224z M397.423,427.044c-4.392-0.243-9.026-0.73-13.418-1.707v-10.491
	c3.902,0.976,7.807,1.464,11.953,1.708c4.637,0,7.563-3.172,7.563-9.027c0-7.319-1.952-10.491-7.563-10.491h-7.317V386.79h6.343
	c5.367,0,7.563-3.416,7.563-9.027c0-5.611-1.952-8.051-6.589-8.051c-3.658,0.244-7.562,0.732-11.222,1.708v-10.735
	c4.147-0.976,8.295-1.464,12.442-1.708c12.197,0,18.053,4.391,18.053,18.785c0,5.611-1.951,11.467-7.074,13.418
	c5.123,0.976,8.295,5.855,8.295,15.37C415.965,422.409,407.913,427.044,397.423,427.044z M486.715,425.58
	c-3.659,0.731-7.562,1.221-11.467,1.464c-14.639,0-20.98-6.099-20.98-34.887c0-28.788,7.807-32.691,22.201-32.691
	c3.415,0.244,6.831,0.488,10.246,1.22v11.466c-3.659-0.976-7.562-1.22-11.467-1.463c-5.61,0-7.807,2.439-7.807,22.201
	c0,19.762,2.195,22.933,7.807,22.933c3.903,0,7.808-0.488,11.467-1.464V425.58z M535.264,426.312v-56.846l-8.295,34.399h-9.759
	l-8.539-34.399v56.846h-11.71v-66.359h19.762l5.611,25.617l5.854-25.617h18.786v66.359H535.264z M570.152,426.801
	c-4.636,0-9.026-0.488-13.419-1.464v-11.223c4.148,0.976,8.295,1.463,12.443,1.463c5.854,0,9.758-2.196,9.758-8.295
	c0-6.831-2.928-9.027-8.051-10.247c-10.49-2.195-14.639-8.051-14.639-19.029c0-14.15,8.052-19.029,22.688-19.029
	c3.903,0,7.808,0.488,11.711,1.464v11.222c-4.147-0.732-8.539-1.22-12.688-1.464c-5.366,0-8.539,1.952-8.539,6.831
	c0,6.1,1.465,7.319,7.563,8.539c9.026,1.952,15.37,6.587,15.37,20.737C591.865,424.36,582.594,426.801,570.152,426.801
	L570.152,426.801z"/>
<path fill="#FFFFFF" d="M111.737,443.878c-1.951,0.732-4.147,0.976-6.099,0.976c-18.542,0-45.866-64.895-45.866-86.607
	c0-8.051,1.952-10.735,4.636-12.93C41.475,348,14.15,356.295,5.612,366.785c-2.196,3.66-3.416,7.807-3.172,12.199
	c0,33.667,36.106,110.273,61.479,110.273C75.63,489.256,95.391,469.982,111.737,443.878 M100.027,342.875
	c23.421,0,47.086,3.903,47.086,17.078c0,26.836-17.078,59.528-25.86,59.528c-15.613,0-34.888-43.183-34.888-64.896
	C86.365,344.827,90.024,342.875,100.027,342.875"/>
<g>
	<path fill="#FFFFFF" d="M197.874,482.062c-0.25,0.062-0.593,0.141-1.029,0.233c-0.438,0.093-0.897,0.18-1.382,0.257
		c-0.484,0.078-0.977,0.147-1.475,0.211c-0.5,0.062-0.938,0.095-1.312,0.095c-1.686,0-3.121-0.243-4.308-0.727
		s-2.162-1.365-2.926-2.646c-0.765-1.28-1.327-3.035-1.687-5.268c-0.358-2.231-0.537-5.096-0.537-8.592
		c0-3.465,0.201-6.251,0.607-8.357c0.405-2.106,1.022-3.745,1.851-4.916c0.825-1.17,1.864-1.949,3.112-2.342
		c1.248-0.389,2.73-0.585,4.448-0.585c0.75,0,1.552,0.071,2.411,0.211c0.857,0.142,1.599,0.289,2.224,0.444v3.465
		c-0.781-0.188-1.663-0.334-2.646-0.444c-0.983-0.107-1.929-0.162-2.832-0.162c-0.843,0-1.585,0.147-2.225,0.442
		c-0.641,0.298-1.164,0.906-1.568,1.826c-0.406,0.922-0.71,2.232-0.913,3.934s-0.304,3.973-0.304,6.812
		c0,2.934,0.108,5.283,0.327,7.046c0.219,1.764,0.538,3.113,0.959,4.05c0.422,0.938,0.943,1.553,1.568,1.851
		c0.624,0.297,1.358,0.443,2.201,0.443c0.967,0,1.966-0.077,2.996-0.233c1.029-0.155,1.842-0.312,2.435-0.469v3.42H197.874z"/>
	<path fill="#FFFFFF" d="M218.052,482.53l-1.779-8.287h-9.13l-1.826,8.287h-4.167l7.913-32.773h5.385l7.772,32.773H218.052z
		 M211.685,452.847l-3.792,17.887h7.631L211.685,452.847z"/>
	<path fill="#FFFFFF" d="M227.37,482.53v-32.773h4.073v29.216h10.44v3.559L227.37,482.53L227.37,482.53z"/>
	<path fill="#FFFFFF" d="M246.565,482.53v-32.773h15.356v3.418h-11.283v10.722h10.112v3.419h-10.112v11.798h11.283v3.418
		L246.565,482.53L246.565,482.53z"/>
	<path fill="#FFFFFF" d="M279.666,482.53l-7.163-29.31v29.31h-3.792v-32.773h6.648l7.21,29.311v-29.311h3.793v32.773H279.666z"/>
	<path fill="#FFFFFF" d="M311.926,465.629c0,3.496-0.195,6.359-0.586,8.592c-0.392,2.231-0.983,3.986-1.779,5.268
		c-0.796,1.28-1.787,2.161-2.973,2.646c-1.188,0.482-2.562,0.727-4.12,0.727c-0.905,0-1.835-0.009-2.786-0.023
		c-0.952-0.017-1.834-0.056-2.646-0.117c-0.936-0.062-1.842-0.125-2.715-0.188v-32.773c0.842-0.062,1.701-0.124,2.575-0.188
		c0.75-0.062,1.569-0.102,2.458-0.116c0.891-0.016,1.74-0.024,2.553-0.024c1.654,0,3.105,0.196,4.354,0.585
		c1.248,0.393,2.295,1.173,3.137,2.343c0.844,1.17,1.477,2.809,1.896,4.916C311.715,459.378,311.926,462.164,311.926,465.629z
		 M307.758,465.957c0-2.811-0.117-5.072-0.353-6.789c-0.232-1.717-0.567-3.043-1.006-3.98c-0.438-0.936-0.944-1.561-1.521-1.871
		c-0.578-0.312-1.227-0.47-1.943-0.47c-0.438,0-0.912,0.01-1.428,0.023c-0.517,0.017-1.007,0.04-1.476,0.071
		c-0.562,0.029-1.107,0.062-1.639,0.093v26.219c0.468,0.032,0.967,0.063,1.498,0.094c0.438,0.031,0.92,0.057,1.451,0.07
		c0.53,0.017,1.045,0.023,1.545,0.023c0.719,0,1.381-0.219,1.99-0.655c0.607-0.438,1.123-1.178,1.545-2.226
		c0.422-1.045,0.749-2.434,0.981-4.166C307.64,470.662,307.758,468.516,307.758,465.957z"/>
	<path fill="#FFFFFF" d="M332.104,482.53l-1.779-8.287h-9.13l-1.826,8.287h-4.167l7.913-32.773h5.384l7.772,32.773H332.104z
		 M325.736,452.847l-3.792,17.887h7.632L325.736,452.847z"/>
	<path fill="#FFFFFF" d="M358.417,458.98c0,2.435-0.358,4.432-1.077,5.991c-0.719,1.562-1.919,2.67-3.604,3.324l6.414,14.233h-4.495
		l-5.992-13.577h-4.168v13.577h-4.071v-32.773c0.778-0.062,1.606-0.124,2.479-0.188c0.75-0.062,1.601-0.102,2.553-0.116
		c0.951-0.017,1.911-0.024,2.88-0.024c1.778,0,3.254,0.229,4.424,0.68c1.172,0.452,2.1,1.101,2.786,1.942
		c0.687,0.844,1.171,1.851,1.451,3.021C358.276,456.241,358.417,457.545,358.417,458.98z M354.249,459.309
		c0-2.277-0.312-3.934-0.937-4.964c-0.624-1.028-1.763-1.545-3.417-1.545c-1.312,0-2.373,0.047-3.184,0.143
		c-0.47,0.062-0.875,0.108-1.22,0.14v12.454h4.402c0.655,0,1.248-0.086,1.778-0.258c0.529-0.171,0.99-0.483,1.382-0.938
		c0.39-0.452,0.686-1.084,0.889-1.896C354.146,461.633,354.249,460.588,354.249,459.309z"/>
	<path fill="#FFFFFF" d="M381.779,453.175v11.19h10.113v3.417h-10.113v14.748h-4.072v-32.773h15.356v3.418H381.779L381.779,453.175z
		"/>
	<path fill="#FFFFFF" d="M416.144,458.98c0,2.435-0.359,4.432-1.076,5.991c-0.719,1.562-1.92,2.67-3.604,3.324l6.414,14.233h-4.494
		l-5.993-13.577h-4.167v13.577h-4.073v-32.773c0.78-0.062,1.606-0.124,2.481-0.188c0.749-0.062,1.599-0.102,2.551-0.116
		s1.912-0.024,2.881-0.024c1.778,0,3.253,0.229,4.424,0.68c1.17,0.452,2.1,1.101,2.785,1.942c0.688,0.844,1.171,1.851,1.451,3.021
		C416.004,456.241,416.144,457.545,416.144,458.98z M411.977,459.309c0-2.277-0.312-3.934-0.938-4.964
		c-0.625-1.028-1.764-1.545-3.418-1.545c-1.311,0-2.372,0.047-3.184,0.143c-0.468,0.062-0.874,0.108-1.217,0.14v12.454h4.399
		c0.656,0,1.248-0.086,1.779-0.258c0.531-0.171,0.99-0.483,1.382-0.938c0.391-0.452,0.688-1.084,0.891-1.896
		S411.977,460.588,411.977,459.309z"/>
	<path fill="#FFFFFF" d="M437.353,482.53l-1.779-8.287h-9.129l-1.826,8.287h-4.168l7.913-32.773h5.385l7.772,32.773H437.353z
		 M430.986,452.847l-3.792,17.887h7.631L430.986,452.847z"/>
	<path fill="#FFFFFF" d="M464.322,482.53v-29.402l-5.01,18.399h-3.887l-5.01-18.399v29.402h-3.744v-32.773h6.602l4.26,16.761
		l4.214-16.761h6.461v32.773H464.322z"/>
	<path fill="#FFFFFF" d="M476.165,482.53v-32.773h15.357v3.418H480.24v10.722h10.112v3.419H480.24v11.798h11.283v3.418
		L476.165,482.53L476.165,482.53z"/>
	<path fill="#FFFFFF" d="M517.975,482.53h-6.367l-3.137-14.233l-3.418,14.233h-6.087l-1.592-32.773h3.604l1.405,30.198l4.213-16.387
		h3.839l4.261,16.387l1.452-30.198h3.418L517.975,482.53z"/>
	<path fill="#FFFFFF" d="M544.054,465.77c0,2.871-0.149,5.378-0.445,7.515c-0.297,2.139-0.812,3.918-1.545,5.338
		c-0.733,1.421-1.731,2.48-2.996,3.184s-2.864,1.055-4.8,1.055s-3.533-0.352-4.798-1.055c-1.265-0.702-2.264-1.763-2.996-3.184
		c-0.734-1.42-1.249-3.199-1.546-5.338c-0.297-2.137-0.444-4.644-0.444-7.515c0-2.746,0.147-5.143,0.444-7.188
		c0.297-2.043,0.812-3.746,1.546-5.104c0.732-1.356,1.731-2.37,2.996-3.043c1.265-0.67,2.862-1.007,4.798-1.007
		s3.535,0.337,4.8,1.007c1.265,0.673,2.263,1.687,2.996,3.043c0.733,1.357,1.248,3.062,1.545,5.104
		C543.905,460.627,544.054,463.022,544.054,465.77z M539.887,466.004c0-2.592-0.094-4.729-0.281-6.415
		c-0.187-1.686-0.499-3.027-0.936-4.026c-0.438-0.997-1.016-1.7-1.732-2.106c-0.719-0.404-1.607-0.608-2.67-0.608
		c-1.061,0-1.95,0.204-2.668,0.608c-0.719,0.406-1.295,1.109-1.732,2.106c-0.438,0.999-0.749,2.342-0.936,4.026
		c-0.188,1.687-0.281,3.823-0.281,6.415c0,2.527,0.094,4.644,0.281,6.344c0.187,1.701,0.498,3.082,0.936,4.145
		c0.438,1.062,1.015,1.817,1.732,2.271s1.607,0.68,2.668,0.68c1.062,0,1.951-0.227,2.67-0.68c0.718-0.452,1.294-1.209,1.732-2.271
		c0.437-1.062,0.748-2.442,0.936-4.145C539.795,470.646,539.887,468.531,539.887,466.004z"/>
	<path fill="#FFFFFF" d="M568.072,458.98c0,2.435-0.358,4.432-1.077,5.991c-0.719,1.562-1.92,2.67-3.604,3.324l6.414,14.233h-4.494
		l-5.993-13.577h-4.167v13.577h-4.074v-32.773c0.78-0.062,1.608-0.124,2.482-0.188c0.749-0.062,1.599-0.102,2.552-0.116
		c0.951-0.017,1.911-0.024,2.879-0.024c1.779,0,3.254,0.229,4.425,0.68c1.171,0.452,2.1,1.101,2.786,1.942
		c0.687,0.844,1.17,1.851,1.451,3.021C567.932,456.241,568.072,457.545,568.072,458.98z M563.905,459.309
		c0-2.277-0.312-3.934-0.937-4.964c-0.625-1.028-1.765-1.545-3.417-1.545c-1.312,0-2.373,0.047-3.185,0.143
		c-0.469,0.062-0.875,0.108-1.218,0.14v12.454h4.401c0.654,0,1.247-0.086,1.777-0.258c0.53-0.171,0.991-0.483,1.382-0.938
		c0.391-0.452,0.687-1.084,0.89-1.896C563.802,461.633,563.905,460.588,563.905,459.309z"/>
	<path fill="#FFFFFF" d="M588.251,482.53l-7.304-15.028l-1.686,2.809v12.221h-4.073v-32.773h4.073v14.374l8.756-14.374h4.354
		l-8.896,14.327l9.364,18.446L588.251,482.53L588.251,482.53z"/>
</g>
</svg>
